{
	"tplCss":[
		"v1.0_pageProfil.css"
	],
	"banner":"co2.views.element.bannerHorizontal",
	"containerClass":{
		"menuLeft":"col-xs-12 no-padding visible-xs",
		"menuTop":"col-xs-12",
		"menuTopImage":"col-lg-3 col-md-4 col-sm-4 hidden-xs no-padding",
		"menuTopGroupBtn":"col-md-12 col-sm-12 col-lg-12 col-xs-12 text-center",
		
		"centralSection":"col-xs-12 col-lg-10 col-lg-offset-1" 
	},
	"menuLeft":{
		"newspaper":{
			"label": "Newspaper",
			"icon":"rss",
			"class":"visible-xs",
			"view":"newspaper"
		},
		"detail":{
			"label": "About",
			"icon":"info-circle",
			"class":"visible-xs",
			"separator":true,
			"view":"detail",
			"id":"btn-start-detail"
		},
		"chart":{
			"label": "Our values",
			"icon":"heartbeat",
			"class":"visible-xs",
			"view":"chart",
			"typeAllow":["projects", "organizations", "events"]
		},
		"contact":{
			"label": "Contact",
			"icon":"envelope",
			"class":"visible-xs",
			"separator":true,
			"id":"",
			"view":"contacts",
			"dataAttr":{
				"toggle":"modal",
				"target":"#selectCreate"
			},
			"typeAllow":["projects", "organizations", "events", "places"]
		},
		"cospace":{
				"label":"CO-space",
				"icon":"connectdevelop",
				"class":"visible-xs",
				"id":"btn-start-cospace",
				"view":"cospace",
				"userConnected":true,
				"typeAllow":["projects", "organizations", "events"]
			},
		"gallery":{
			"label": "Gallery",
			"icon":"cloud",
			"class":"visible-xs",
			"view":"gallery",
			"id":"btn-start-gallery",
			"separator":true
		},
		"community":{
			"label": "Community",
			"icon":"users",
			"class":"capitalize visible-xs",
			"separator":true,
			"view":"directory",
			"dataAttr":{
				"icon":"users"
			}
		},
		"events":{
			"label":"Agenda",
			"icon":"calendar",
			"view":"directory",
			"class":"visible-xs",
			"separator":true,
			"dataAttr":{
				"dir":"events",
				"icon":"calendar"
			}
		},
		"projects":{
			"label":"Projects",
			"icon":"lightbulb-o",
			"view":"directory",
			"class":"visible-xs",
			"separator":true,
			"dataAttr":{
				"dir":"projects",
				"icon":"lightbulb-o"
			},
			"typeAllow":["projects","citoyens","organizations","places"]
		},
		"classifieds":{
			"label":"Classifieds",
			"icon":"bullhorn",
			"class":"visible-xs",
			"separator":true,
			"view":"directory",
			"dataAttr":{
				"dir":"classifieds",
				"icon":"bullhorn"
			},
			"typeAllow":["projects","citoyens","organizations","places"]	
		},
		"ressources":{
			"label":"Ressources",
			"icon":"cubes",
			"class":"visible-xs",
			"separator":true,
			"view":"directory",
			"dataAttr":{
				"dir":"ressources",
				"icon":"cubes"
			}	
		},
		"jobs":{
			"label":"Jobs",
			"icon":"briefcase",
			"class":"visible-xs",
			"separator":true,
			"view":"directory",
			"dataAttr":{
				"dir":"jobs",
				"icon":"briefcase"
			},
			"typeAllow":["projects","citoyens","organizations"]
		},
		"pois":{
			"label":"Points of interest",
			"icon":"map-marker",
			"class":"visible-xs",
			"separator":true,
			"view":"directory",
			"dataAttr":{
				"dir":"poi",
				"icon":"map-marker"
			},
			"separator":true
		},
		"surveys":{
			"label":"Surveys",
			"icon":"gavel",
			"class":"visible-xs",
			"separator":true,
			"view":"directory",
			"dataAttr":{
				"dir":"surveys",
				"icon":"gavel"
			},
			"separator":true,
			"typeAllow":["projects","citoyens","organizations"]
		}
	},
	"menuTop":{
		"img":true,
		"btnGroup":{
			"imgProfil":{
				"class":"affixMenuImg visible-xs pull-left"
			},
			"nameProfil":{
				"class":"col-lg-1 col-md-2 col-sm-2 hidden-xs"
			},
			"newspaper":{
				"label": "Newspaper",
				"labelClass":"label-link bold",
				"icon":"newspaper-o",
				"class":"place-align hidden-xs",
				"iconClass":"link-circle text-center",
				"view":"newspaper"
			},
			"detail":{
			"label": "About",
			"labelClass":"label-link bold",
			"icon":"info",
			"class":"place-align hidden-xs",
			"iconClass":"link-circle text-center",
			"view":"detail",
			"id":"btn-start-detail"
			},
			"gallery":{
			"label": "Gallery",
			"labelClass":"label-link bold",
			"icon":"picture-o",
			"class":"place-align hidden-xs",
			"iconClass":"link-circle text-center",
			"view":"gallery",
			"id":"btn-start-gallery"
			},
			"community":{
			"label": "Community",
			"labelClass":"label-link bold",
			"icon":"users",
			"class":"place-align hidden-xs",
			"iconClass":"link-circle text-center",
			"view":"directory",
			"dataAttr":{
				"icon":"users"
				}
			},
			"classifieds":{
			"label":"Classifieds",
			"labelClass":"label-link bold",
			"icon":"bullhorn",
			"class":"place-align hidden-xs",
			"iconClass":"link-circle text-center",
			"view":"directory",
			"dataAttr":{
				"dir":"classifieds",
				"icon":"bullhorn"
			},
			"typeAllow":["projects","citoyens","organizations","places"]	
			},
			"events":{
			"label":"Agenda",
			"labelClass":"label-link bold",
			"icon":"calendar",
			"class":"place-align hidden-xs",
			"iconClass":"link-circle text-center",
			"view":"directory",
			"dataAttr":{
				"dir":"events",
				"icon":"calendar"
				}
			},
			"projects":{
			"label":"Projects",
			"labelClass":"label-link bold",
			"icon":"lightbulb-o",
			"view":"directory",
			"class":"place-align hidden-xs",
			"iconClass":"link-circle text-center",
			"dataAttr":{
				"dir":"projects",
				"icon":"lightbulb-o"
			},
			"typeAllow":["projects","citoyens","organizations","places"]
			},
			"cospace":{
				"label":"CO-space",
				"labelClass":"label-link bold",
				"icon":"connectdevelop",
				"class":"place-align hidden-xs",
				"iconClass":"link-circle text-center",
				"userConnected":true,
				"id":"btn-start-cospace",
				"view":"cospace",
				"typeAllow":["projects", "organizations", "events"]
			},
			"create":{
				"label":"",
				"icon":"plus-circle", 
				"class":"pull-left visible-xs",
				"action":"create",
				"edit":true
			},
			"params":{
				"label":"",
				"icon":"cogs", 
				"class":"pull-right visible-xs",
				"labelClass":"hidden-sm",
				"dropdown":{
					"settings":{
						"label":"My parameters",
						"icon":"cogs",
						"typeAllow":["citoyens"],
						"edit":true,
						"view":"settings"
					},
					"edit":{
						"label":"Edit information",
						"icon":"pencil",
						"edit":true,
						"view":"detail",
						"id":"btn-start-detail"
					},
					"settingsCommunity":{
						"label":"Settings params",
						"icon":"cogs",
						"typeAllow":["projects", "organizations", "events"],
						"edit":true,
						"view":"settingsCommunity"
					},
					"editSlug":{
						"label":"Edit slug",
						"icon":"id-badge",
						"typeAllow":["projects", "organizations", "events"],
						"edit":true,
						"action":"updateSlug"
					},
					"history":{
						"label":"History",
						"icon":"history",
						"typeAllow":["projects", "organizations", "events"],
						"openEdition":true,
						"view":"history"
					},
					"qrCode":{
						"label":"QR Code",
						"icon":"qrcode",
						"action":"qrCode"	
					},
					"chatSettings":{
						"label":"Chat settings",
						"icon":"comments",
						"typeAllow":["citoyens"],
						"edit":true,
						"action":"chatSettings"	
					},
					"md":{
						"label":"Markdown version",
						"icon":"file-text-o",
						"typeAllow":["citoyens"],
						"edit":true,
						"view":"md"
					},
					"mindmap":{
						"label":"Mindmap view",
						"icon":"sitemap",
						"typeAllow":["citoyens"],
						"edit":true,
						"action":"mindmap"
					},
					"downloadData":{
						"label":"Download data",
						"icon":"download",
						"action":"downloadData",
						"edit":true
					},
					"printOut" : {
						"label":"Print out",
						"icon":"print",
						"action":"printOut",
						"edit":true
					},
					"delete" : {
						"label":"Delete this page",
						"icon":"trash",
						"class": "text-red",
						"action":"delete",
						"edit":true,
						"typeAllow":["projects", "organizations", "events"]
					}
				}
			},
			"share":{
				"label":"",
				"icon":"share-alt", 
				"class":"pull-left visible-xs",
				"typeAllow":["projects", "organizations", "events"],
				"action":"share"
			},
			"chat":{
				"label":"",
				"icon":"comments", 
				"class":"pull-left visible-xs",
				"userConnected":true,
				"action":"chat"
			}
		}	
	}
}