[
	{
	    "key": "organizationStandart",
	    "name": "Organization Standart",
	    "typeElement": "organization",
	    "init" : true,
	    "fields": {
	        "Nom de l'organisation": "name",
	        "Type (Association, Groupe informel, Entreprise ou Service public)": "type",
	        "Rue": "address.streetAddress",
	        "Code postal": "address.postalCode",
	        "Ville": "address.addressLocality",
	        "Code pays": "address.addressCountry",
	        "Email": "email",
	        "Site web": "url",
	        "Description courte": "shortDescription",
	        "Description longue": "description",
	        "Logo (lien)": "urlImg",
	        "Latitude": "geo.latitude",
	        "Longitude": "geo.longitude",
	        "Fixe": "telephone.fixe.0",
	        "Fixe 2": "telephone.fixe.1",
	        "Mobile": "telephone.mobile.0",
	        "Mobile 2": "telephone.mobile.1",
	        "Tag 1": "tags.0",
	        "Tag 2": "tags.1",
	        "Tag 3": "tags.2",
	        "Contact : nom": "contacts.0.name",
	        "Contact : email": "contacts.0.email",
	        "Contact : téléphone": "contacts.0.telephone",
	        "Contact : rôle": "contacts.0.role",
	        "Contact2 : nom": "contacts.1.name",
	        "Contact2 : email": "contacts.1.email",
	        "Contact2 : téléphone": "contacts.1.telephone",
	        "Contact2 : rôle": "contacts.1.role"
	    }
	},
	{
	    "key": "eventStandart",
	    "name": "Event Standart",
	    "typeElement": "event",
	    "init" : true,
	    "fields": {
	        "Nom de l'évènement": "name",
	        "Type": "type",
	        "Journée": "allDay",
	        "Date de début": "startDate",
	        "Date de fin": "endDate",
	        "Code postal": "address.postalCode",
	        "Ville": "address.addressLocality",
	        "Rue": "address.streetAddress",
	        "Code pays": "address.addressCountry",
	        "Email": "email",
	        "Site web": "url",
	        "Description courte": "shortDescription",
	        "Description longue": "description",
	        "Logo (lien)": "urlImg",
	        "Latitude": "geo.latitude",
	        "Longitude": "geo.longitude",
	        "Fixe": "telephone.fixe.0",
	        "Fixe 2": "telephone.fixe.1",
	        "Mobile": "telephone.mobile.0",
	        "Mobile 2": "telephone.mobile.1",
	        "Tag 1": "tags.0",
	        "Tag 2": "tags.1",
	        "Tag 3": "tags.2"
	    }
	},
	{
	    "key": "projetStandart",
	    "name": "Projet Standart",
	    "typeElement": "project",
	    "init" : true,
	    "fields": {
	        "Nom du projet": "name",
	        "Date de début": "startDate",
	        "Date de fin": "endDate",
	        "Code postal": "address.postalCode",
	        "Ville": "address.addressLocality",
	        "Rue": "address.streetAddress",
	        "Code pays": "address.addressCountry",
	        "Email": "email",
	        "Site web": "url",
	        "Description courte": "shortDescription",
	        "Description longue": "description",
	        "Logo (lien)": "urlImg",
	        "Latitude": "geo.latitude",
	        "Longitude": "geo.longitude",
	        "Fixe": "telephone.fixe.0",
	        "Fixe 2": "telephone.fixe.1",
	        "Mobile": "telephone.mobile.0",
	        "Mobile 2": "telephone.mobile.1",
	        "Tag 1": "tags.0",
	        "Tag 2": "tags.1",
	        "Tag 3": "tags.2"
	    }
	}
]