{
    
    "name" : "STRING",
    "email" : "STRING",
    "type" : "STRING",
    "address" : {
        "@type"  : "STRING",
        "postalCode" : "STRING",
        "addressLocality" : "STRING",
        "codeInsee" : "STRING",
        "streetAddress" : "STRING",
        "addressCountry" : "STRING",
        "level1" : "STRING",
        "level1Name" : "STRING",
        "level3" : "STRING",
        "level3Name" : "STRING",
        "level4" : "STRING",
        "level4Name" : "STRING",
        "localityId" : "STRING"
    },
    "geo" : {
        "latitude" : "FLOAT",
        "longitude" : "FLOAT",
        "precision" : "INT"
    },
    "description" : "STRING",
    "shortDescription" : "STRING",
    "url" : "STRING",
    "urlImg" : "STRING",
    "urlFacebook" : "STRING",
    "urlTwitter" : "STRING",
    "source" : {
        "id" : "STRING",
        "url" : "STRING",
        "key" : "STRING",
        "update" : "DATETIME"
    },
    "tags" : [ 
        "STRING"
    ],
    "telephone" : {
        "fixe" : [ 
            "STRING"
        ],
        "mobile" : [ 
            "STRING"
        ],
        "fax" : [ 
            "STRING"
        ]
    },
    "contacts" : [ 
        {
            "name" : "STRING",
            "role" : "STRING",
            "telephone" : [ 
                "STRING"
            ],
            "email" : "STRING"
        }
    ]
    
}