<?xml version="1.0" encoding="utf-8"?>
<svg version="1.1" id="Слой_1" xmlns="http://www.w3.org/2000/svg" xmlns:xlink="http://www.w3.org/1999/xlink" viewBox="0 0 80 80">
<path fill="#86898C" d="M77.99,37.99h-20.2V8.28c0-1.11-0.9-2.01-2.01-2.01H24.06c-1.11,0-2.01,0.9-2.01,2.01v29.71H2.01
		C0.9,37.99,0,38.89,0,40v31.72c0,1.11,0.9,2.01,2.01,2.01h31.72c1.1,0,2-0.9,2.01-2.01V42.01h8.52v29.71c0,1.11,0.9,2.01,2.01,2.01
		h31.72c1.11,0,2.01-0.9,2.01-2.01V40C80,38.89,79.1,37.99,77.99,37.99z M26.07,10.29h27.71v27.7h-7.51H33.73h-7.66V10.29z
		 M31.72,69.71H4.01v-27.7h20.05h7.66V69.71z M75.99,69.71H48.28v-27.7h7.5h20.21V69.71z"/>
	<path fill="#86898C" d="M44.62,30.54l-2.45-0.7c-0.02-1.01-0.03-2.01-0.03-2.97v-6.48l0.09-3.32l-0.33-0.23l-6.22,1.3v1.52l1.94-0.19
		v7.4c0,0.97-0.01,1.98-0.03,3l-2.64,0.67v1.19h9.67V30.54z"/>
	<path fill="#86898C" d="M17.45,58.63c4-2.29,5.97-4.26,5.97-6.6c0-2.27-1.53-4.07-5.06-4.07c-3.13,0-5.73,1.43-5.73,4.05
		c0.3,0.63,0.93,1.03,1.66,1.03c0.75,0,1.67-0.35,1.9-2.13l0.22-1.68c0.12-0.01,0.24-0.01,0.36-0.01c1.36,0,2.2,0.98,2.2,2.76
		c0,2.23-1.15,3.58-3.3,5.76c-0.94,0.94-1.94,1.9-2.95,2.88v2.32h10.86v-3.28H15.7C16.28,59.32,16.85,58.98,17.45,58.63z"/>
	<path fill="#86898C" d="M62.12,63.31c3.88,0,6.08-1.76,6.08-4.17c0-2.07-0.99-3.4-3.87-3.91c2.52-0.64,3.42-2.13,3.42-3.5
		c0-2.11-1.66-3.77-5.41-3.77c-2.6,0-4.96,1.17-4.8,3.91c0.28,0.4,0.8,0.7,1.38,0.7c0.87,0,1.74-0.43,1.9-1.69l0.22-1.65
		c0.06,0,0.12-0.01,0.17-0.01c1.38,0,2.2,0.84,2.2,2.67c0,2.06-1.01,2.81-2.67,2.81h-0.56v1.34h0.7c1.75,0,2.76,0.98,2.76,2.88
		c0,2.18-1.05,3.09-3.02,3.09c-0.09,0-0.17-0.01-0.25-0.01l-0.15-1.69c-0.16-1.78-0.84-2.25-1.87-2.25c-0.61,0-1.29,0.33-1.57,1.15
		C56.78,61.74,58.49,63.31,62.12,63.31z"/>
</svg>
