<?xml version="1.0" encoding="utf-8"?>
<svg xmlns="http://www.w3.org/2000/svg" xmlns:xlink="http://www.w3.org/1999/xlink" viewBox="0 0 400 400">
<path fill="#00899D" d="M382.4,38.1c-31.7,0-63.3-3.9-94-11.6c-29-7.3-58.7-10.9-88.4-10.9c-29.7,0-59.3,3.6-88.3,10.9
	c-15.4,3.9-31,6.7-46.7,8.7c-15.7,1.9-31.5,2.9-47.4,2.9C7.8,38.1,0,46.1,0,55.7c0,0.6,0,1.2,0.1,1.9l30.4,288.6
	c0.8,7.1,5.7,13,12.5,15c51.2,15.4,104.1,23,157,23c52.9,0,105.8-7.7,157.1-23c3.4-1,6.3-3,8.5-5.6c2.2-2.6,3.6-5.9,4-9.4
	l30.4-288.6C401,47.2,392.8,38.1,382.4,38.1z"/>
<path fill="#DFE1E1" d="M363.3,55.1c-28.4,0-56.6-3.5-84.1-10.4C253.2,38.3,226.6,35,200,35c-26.6,0-53.1,3.3-79.1,9.7
	c-13.8,3.4-27.7,6-41.8,7.8c-14,1.7-28.2,2.6-42.4,2.6C28,55.1,21,62.3,21,70.9c0,0.6,0,1.1,0.1,1.7l27.2,258.3
	c0.7,6.3,5.1,11.6,11.2,13.5C105.3,358.1,152.6,365,200,365c47.4,0,94.7-6.9,140.6-20.6c3-0.9,5.7-2.7,7.6-5c2-2.4,3.2-5.3,3.5-8.4
	L379,72.6C379.9,63.2,372.6,55.1,363.3,55.1z"/>
</svg>
