
{
    "filters" : {
        
        "link"          : { "label": "Link, Url","key":"link","icon":"link"},
        "indicator"          : { "label": "Indicator","key":"indicator","icon":"link"},
        "tool"          : { "label": "Tool","key":"tool","icon":"wrench"},
        "machine"       : { "label": "Machine","key":"machine","icon":"cogs"},
        "affiche"       : { "label": "Affiche","key":"affiche","icon":"newspaper-o"},
        "article"       : { "label": "Article","key":"article","icon":"newspaper-o"},
        "forum"         : { "label": "Forum","key":"forum","icon":"comment"},
        "cms"           : { "label": "CMS","key":"cms","icon":"edit"},
        "doc"           : { "label": "Documentation","key":"doc","icon":"book"},
        "faq"           : { "label": "FAQ","key":"faq","icon":"info"},
        "software"      : { "label": "Software","key":"software","icon":"code"},
        "rh"            : { "label": "Human ressource","key":"rh","icon":"users"},
        "financialRessource" : { "label": "Financial ressource","key":"RessourceFinanciere","icon":"money"},
        "documentation" : { "label": "Documentation","key":"ficheBlanche","icon":"file-text-o"},
        "geoJson"       : { "label": "Geojson / UMap","key":"geoJson","icon":"map"},
        "compostPickup" : { "label": "Compost pickup","key":"compostPickup","icon":"inbox"},
        "video"         : { "label": "Video","key":"video","icon":"video-camera"},
        "measure"       : { "label": "Measure","key":"measure","icon":"gavel"},
        "recoveryCenter": { "label": "Recory center","key":"recoveryCenter","icon":"recycle"},
        "trash"         : { "label": "Trash","key":"trash","icon":"trash"},
        "history"       : { "label": "History","key":"history","icon":"clock-o"},
        "something2See" : { "label": "To see","key":"something2See","icon":"eye"},
        "funPlace"      : { "label": "Fun place","key":"funPlace","icon":"smile-o"},
        "place"         : { "label": "Public place","key":"place","icon":"map-marker"},
        "artPiece"      : { "label": "Art pieces","key":"artPiece","icon":"paint-brush"},
        "streetArt"     : { "label": "Street art","key":"streetArts","icon":"paint-brush"},
        "openScene"     : { "label": "Open mic","key":"openScene","icon":"bullhorn"},
        "stand"         : { "label": "Stand","key":"stand","icon":"map-marker"},
        "parking"       : { "label": "Parking","key":"parking","icon":"car"},
        "todo"          : { "label":"Todo","key":"todo","icon":"cog"},
        "club"          : { "label":"Club","key":"club","icon":"users"},
        "other"         : { "label":"Other","key":"other","icon":"map-marker"}

    }
}
